Data Processing with the Tidyverse
…
Reorder the rows (arrange())

Pick variables by their names (select())

Create new variables with functions of existing variables (mutate())

Collapse many values down to a single summary (summarise())

Filter

Here, you can filter data based on a specific criteria. For example, if I wanted to look only at the midpoint of the vowel, or at specific vowel subsets.

normtimedata %>% filter(F1<800)

## # A tibble: 63,537 x 13
##    Speaker Word  Vowel Nasality RepNo NormTime Type  label  Time    F1
##    <chr>   <chr> <chr> <chr>    <int>    <dbl> <chr> <chr> <dbl> <dbl>
##  1 BP02    abun… u     nasal        1      0.1 clean un     3.39  569.
##  2 BP02    abun… u     nasal        1      0.2 clean un     3.41  364.
##  3 BP02    abun… u     nasal        1      0.3 clean un     3.43  373.
##  4 BP02    abun… u     nasal        1      0.4 clean un     3.46  303.
##  5 BP02    abun… u     nasal        1      0.5 clean un     3.48  415.
##  6 BP02    abun… u     nasal        1      0.6 clean un     3.51  336.
##  7 BP02    abun… u     nasal        1      0.7 clean un     3.53  336.
##  8 BP02    abun… u     nasal        1      0.8 clean un     3.56  330.
##  9 BP02    abun… u     nasal        1      0.9 clean un     3.58  302.
## 10 BP02    abun… u     nasal        1      1   clean un     3.60  280.
## # ... with 63,527 more rows, and 3 more variables: F2 <dbl>, F3 <dbl>,
## #   F2_3 <dbl>

normtimedata %>% filter(NormTime == 0.5)

## # A tibble: 6,428 x 13
##    Speaker Word  Vowel Nasality RepNo NormTime Type  label  Time    F1
##    <chr>   <chr> <chr> <chr>    <int>    <dbl> <chr> <chr> <dbl> <dbl>
##  1 BP02    abun… u     nasal        1      0.5 clean un     3.48  415.
##  2 BP02    abun… u     nasal        2      0.5 clean un     5.90  367.
##  3 BP02    abun… u     nasal        3      0.5 clean un     8.51  315.
##  4 BP02    abun… u     nasal        4      0.5 clean un    11.2   301.
##  5 BP02    abun… u     nasal        5      0.5 clean un    14.0   336.
##  6 BP02    abun… u     nasal        6      0.5 clean un    16.4   310.
##  7 BP02    abun… u     nasal        7      0.5 clean un    19.0   323.
##  8 BP02    abun… u     nasal        8      0.5 clean un    21.8   321.
##  9 BP02    abun… u     nasal        9      0.5 clean un    24.5   285.
## 10 BP02    abun… u     nasal       10      0.5 clean un    27.3   357.
## # ... with 6,418 more rows, and 3 more variables: F2 <dbl>, F3 <dbl>,
## #   F2_3 <dbl>
…
## # A tibble: 6 x 13
##   Speaker Word  Vowel Nasality RepNo NormTime Type  label  Time    F1    F2
##   <chr>   <chr> <chr> <chr>    <int>    <dbl> <chr> <chr> <dbl> <dbl> <dbl>
## 1 BP02    tapa… a     nasal        1      0.1 clean an     3.59  460. 1271.
## 2 BP02    tapa… a     nasal        1      0.2 clean an     3.62  464. 1379.
## 3 BP02    tapa… a     nasal        1      0.3 clean an     3.64  433. 1393.
## 4 BP02    tapa… a     nasal        1      0.4 clean an     3.67  337. 1734.
## 5 BP02    tapa… a     nasal        1      0.5 clean an     3.69  335. 2246.
## 6 BP02    tapa… a     nasal        1      0.6 clean an     3.71  326. 2231.
## # ... with 2 more variables: F3 <dbl>, F2_3 <dbl>

meanF1 = mean(normtimedata$F1, na.rm = TRUE)
normtimedata%>% filter(F1< meanF1)

## # A tibble: 39,508 x 13
##    Speaker Word  Vowel Nasality RepNo NormTime Type  label  Time    F1
##    <chr>   <chr> <chr> <chr>    <int>    <dbl> <chr> <chr> <dbl> <dbl>
##  1 BP02    abun… u     nasal        1      0.2 clean un     3.41  364.
##  2 BP02    abun… u     nasal        1      0.3 clean un     3.43  373.
##  3 BP02    abun… u     nasal        1      0.4 clean un     3.46  303.
##  4 BP02    abun… u     nasal        1      0.6 clean un     3.51  336.
##  5 BP02    abun… u     nasal        1      0.7 clean un     3.53  336.
##  6 BP02    abun… u     nasal        1      0.8 clean un     3.56  330.
##  7 BP02    abun… u     nasal        1      0.9 clean un     3.58  302.
##  8 BP02    abun… u     nasal        1      1   clean un     3.60  280.
##  9 BP02    abun… u     nasal        2      0.2 clean un     5.83  326.
## 10 BP02    abun… u     nasal        2      0.3 clean un     5.86  287.
## # ... with 39,498 more rows, and 3 more variables: F2 <dbl>, F3 <dbl>,
## #   F2_3 <dbl>
…
Arrange

Arrange changes the order of rows based on a column or a set of columns. The default is ascending order. To use descending order, use desc().

normtimedata %>% arrange(F1) 

## # A tibble: 64,280 x 13
##    Speaker Word  Vowel Nasality RepNo NormTime Type  label  Time    F1
##    <chr>   <chr> <chr> <chr>    <int>    <dbl> <chr> <chr> <dbl> <dbl>
##  1 BP10    bebum u     nasal_f…    38      1   clean um     84.3  57.0
##  2 BP21    cabi… i     oral        40      0.3 clean io     81.3  60.5
##  3 BP10    tapa… a     nasal       19      0.5 clean an     42.0  66.0
##  4 BP10    tupa  a     nasal_f…    14      1   clean am     31.3  72.1
##  5 BP14    bebum u     nasal_f…    47      0.9 clean um     95.4  75.0
##  6 BP21    cabi… i     nasaliz…    14      0.5 clean is     28.4  75.3
##  7 BP05    trib… u     nasaliz…    39      0.3 clean u~     87.8  77.4
##  8 BP04    abun… u     nasal       43      0.3 clean un     75.6  81.5
##  9 BP14    abun… u     nasal       49      0.2 clean un     87.0  83.2
## 10 BP21    cabi… i     oral         7      1   clean io     14.7  85.2
## # ... with 64,270 more rows, and 3 more variables: F2 <dbl>, F3 <dbl>,
## #   F2_3 <dbl>

normtimedata %>% arrange(F1, desc(F2)) 

## # A tibble: 64,280 x 13
##    Speaker Word  Vowel Nasality RepNo NormTime Type  label  Time    F1
##    <chr>   <chr> <chr> <chr>    <int>    <dbl> <chr> <chr> <dbl> <dbl>
##  1 BP10    bebum u     nasal_f…    38      1   clean um     84.3  57.0
##  2 BP21    cabi… i     oral        40      0.3 clean io     81.3  60.5
##  3 BP10    tapa… a     nasal       19      0.5 clean an     42.0  66.0
##  4 BP10    tupa  a     nasal_f…    14      1   clean am     31.3  72.1
##  5 BP14    bebum u     nasal_f…    47      0.9 clean um     95.4  75.0
##  6 BP21    cabi… i     nasaliz…    14      0.5 clean is     28.4  75.3
##  7 BP05    trib… u     nasaliz…    39      0.3 clean u~     87.8  77.4
##  8 BP04    abun… u     nasal       43      0.3 clean un     75.6  81.5
##  9 BP14    abun… u     nasal       49      0.2 clean un     87.0  83.2
## 10 BP21    cabi… i     oral         7      1   clean io     14.7  85.2
## # ... with 64,270 more rows, and 3 more variables: F2 <dbl>, F3 <dbl>,
## #   F2_3 <dbl>

normtimedata %>% arrange(Speaker, Vowel, desc(Nasality)) 

## # A tibble: 64,280 x 13
##    Speaker Word  Vowel Nasality RepNo NormTime Type  label  Time    F1
##    <chr>   <chr> <chr> <chr>    <int>    <dbl> <chr> <chr> <dbl> <dbl>
##  1 BP02    baba… a     oral         1      0.1 clean ao     5.67  602.
##  2 BP02    baba… a     oral         1      0.2 clean ao     5.69  709.
##  3 BP02    baba… a     oral         1      0.3 clean ao     5.71  744.
##  4 BP02    baba… a     oral         1      0.4 clean ao     5.73  724.
##  5 BP02    baba… a     oral         1      0.5 clean ao     5.75  673.
##  6 BP02    baba… a     oral         1      0.6 clean ao     5.77  691.
##  7 BP02    baba… a     oral         1      0.7 clean ao     5.78  685.
##  8 BP02    baba… a     oral         1      0.8 clean ao     5.80  673.
##  9 BP02    baba… a     oral         1      0.9 clean ao     5.82  616.
## 10 BP02    baba… a     oral         1      1   clean ao     5.84  414.
## # ... with 64,270 more rows, and 3 more variables: F2 <dbl>, F3 <dbl>,
## #   F2_3 <dbl>

Select

Select allows you to choose one or more variable from your dataset. This is important because you may have columns that you simply don’t care about, and you don’t want to accidentially use them in your analysis.

normtimedata %>% select(Nasality, Vowel, Speaker)

## # A tibble: 64,280 x 3
##    Nasality Vowel Speaker
##    <chr>    <chr> <chr>  
##  1 nasal    u     BP02   
##  2 nasal    u     BP02   
##  3 nasal    u     BP02   
##  4 nasal    u     BP02   
##  5 nasal    u     BP02   
##  6 nasal    u     BP02   
##  7 nasal    u     BP02   
##  8 nasal    u     BP02   
##  9 nasal    u     BP02   
## 10 nasal    u     BP02   
## # ... with 64,270 more rows

normtimedata %>% select(Time:Speaker)

## # A tibble: 64,280 x 9
##     Time label Type  NormTime RepNo Nasality Vowel Word   Speaker
##    <dbl> <chr> <chr>    <dbl> <int> <chr>    <chr> <chr>  <chr>  
##  1  3.39 un    clean      0.1     1 nasal    u     abunda BP02   
##  2  3.41 un    clean      0.2     1 nasal    u     abunda BP02   
##  3  3.43 un    clean      0.3     1 nasal    u     abunda BP02   
##  4  3.46 un    clean      0.4     1 nasal    u     abunda BP02   
##  5  3.48 un    clean      0.5     1 nasal    u     abunda BP02   
##  6  3.51 un    clean      0.6     1 nasal    u     abunda BP02   
##  7  3.53 un    clean      0.7     1 nasal    u     abunda BP02   
##  8  3.56 un    clean      0.8     1 nasal    u     abunda BP02   
##  9  3.58 un    clean      0.9     1 nasal    u     abunda BP02   
## 10  3.60 un    clean      1       1 nasal    u     abunda BP02   
## # ... with 64,270 more rows

normtimedata %>% select(-Type)

## # A tibble: 64,280 x 12
##    Speaker Word  Vowel Nasality RepNo NormTime label  Time    F1    F2
##    <chr>   <chr> <chr> <chr>    <int>    <dbl> <chr> <dbl> <dbl> <dbl>
##  1 BP02    abun… u     nasal        1      0.1 un     3.39  569. 2372.
##  2 BP02    abun… u     nasal        1      0.2 un     3.41  364. 2297.
##  3 BP02    abun… u     nasal        1      0.3 un     3.43  373. 2258.
##  4 BP02    abun… u     nasal        1      0.4 un     3.46  303. 2165.
##  5 BP02    abun… u     nasal        1      0.5 un     3.48  415. 2247.
##  6 BP02    abun… u     nasal        1      0.6 un     3.51  336. 2098.
##  7 BP02    abun… u     nasal        1      0.7 un     3.53  336. 2272.
##  8 BP02    abun… u     nasal        1      0.8 un     3.56  330. 1719.
##  9 BP02    abun… u     nasal        1      0.9 un     3.58  302. 2337.
## 10 BP02    abun… u     nasal        1      1   un     3.60  280.  966.
## # ... with 64,270 more rows, and 2 more variables: F3 <dbl>, F2_3 <dbl>

What happens if you want to rename a particular variable while doing this? There are many tedious ways to do this, such as creating an identical variable with the different name, or using the colnames() function in base R. The easiest way to do it is to use the rename function, which is a different version of select. It keeps anything not specifically mentioned.

normtimedata %>% rename(Normalized_Time = NormTime)

## # A tibble: 64,280 x 13
##    Speaker Word  Vowel Nasality RepNo Normalized_Time Type  label  Time
##    <chr>   <chr> <chr> <chr>    <int>           <dbl> <chr> <chr> <dbl>
##  1 BP02    abun… u     nasal        1             0.1 clean un     3.39
##  2 BP02    abun… u     nasal        1             0.2 clean un     3.41
##  3 BP02    abun… u     nasal        1             0.3 clean un     3.43
##  4 BP02    abun… u     nasal        1             0.4 clean un     3.46
##  5 BP02    abun… u     nasal        1             0.5 clean un     3.48
##  6 BP02    abun… u     nasal        1             0.6 clean un     3.51
##  7 BP02    abun… u     nasal        1             0.7 clean un     3.53
##  8 BP02    abun… u     nasal        1             0.8 clean un     3.56
##  9 BP02    abun… u     nasal        1             0.9 clean un     3.58
## 10 BP02    abun… u     nasal        1             1   clean un     3.60
## # ... with 64,270 more rows, and 4 more variables: F1 <dbl>, F2 <dbl>,
## #   F3 <dbl>, F2_3 <dbl>

normtimedata %>% rename(Normalized_Time = NormTime) %>%
  select(-Type)

## # A tibble: 64,280 x 12
##    Speaker Word  Vowel Nasality RepNo Normalized_Time label  Time    F1
##    <chr>   <chr> <chr> <chr>    <int>           <dbl> <chr> <dbl> <dbl>
##  1 BP02    abun… u     nasal        1             0.1 un     3.39  569.
##  2 BP02    abun… u     nasal        1             0.2 un     3.41  364.
##  3 BP02    abun… u     nasal        1             0.3 un     3.43  373.
##  4 BP02    abun… u     nasal        1             0.4 un     3.46  303.
##  5 BP02    abun… u     nasal        1             0.5 un     3.48  415.
##  6 BP02    abun… u     nasal        1             0.6 un     3.51  336.
##  7 BP02    abun… u     nasal        1             0.7 un     3.53  336.
##  8 BP02    abun… u     nasal        1             0.8 un     3.56  330.
##  9 BP02    abun… u     nasal        1             0.9 un     3.58  302.
## 10 BP02    abun… u     nasal        1             1   un     3.60  280.
## # ... with 64,270 more rows, and 3 more variables: F2 <dbl>, F3 <dbl>,
## #   F2_3 <dbl>

Finally, you can use the everything() function to move something to the beginning of the data frame:

normtimedata %>% rename(Normalized_Time = NormTime) %>%
  select(Speaker, Nasality, everything()) %>%
  select(-Type)

## # A tibble: 64,280 x 12
##    Speaker Nasality Word  Vowel RepNo Normalized_Time label  Time    F1
##    <chr>   <chr>    <chr> <chr> <int>           <dbl> <chr> <dbl> <dbl>
##  1 BP02    nasal    abun… u         1             0.1 un     3.39  569.
##  2 BP02    nasal    abun… u         1             0.2 un     3.41  364.
##  3 BP02    nasal    abun… u         1             0.3 un     3.43  373.
##  4 BP02    nasal    abun… u         1             0.4 un     3.46  303.
##  5 BP02    nasal    abun… u         1             0.5 un     3.48  415.
##  6 BP02    nasal    abun… u         1             0.6 un     3.51  336.
##  7 BP02    nasal    abun… u         1             0.7 un     3.53  336.
##  8 BP02    nasal    abun… u         1             0.8 un     3.56  330.
##  9 BP02    nasal    abun… u         1             0.9 un     3.58  302.
## 10 BP02    nasal    abun… u         1             1   un     3.60  280.
## # ... with 64,270 more rows, and 3 more variables: F2 <dbl>, F3 <dbl>,
## #   F2_3 <dbl>

Other things that might help when selecting a variable can be found in the select help page.

Mutate

Sometimes, you want to create a new variable, that is a function of an old variable. This function will add a new variable to the end of your dataset.

normtimedata %>% mutate(F1_2= F2-F1)

## # A tibble: 64,280 x 14
##    Speaker Word  Vowel Nasality RepNo NormTime Type  label  Time    F1
##    <chr>   <chr> <chr> <chr>    <int>    <dbl> <chr> <chr> <dbl> <dbl>
##  1 BP02    abun… u     nasal        1      0.1 clean un     3.39  569.
##  2 BP02    abun… u     nasal        1      0.2 clean un     3.41  364.
##  3 BP02    abun… u     nasal        1      0.3 clean un     3.43  373.
##  4 BP02    abun… u     nasal        1      0.4 clean un     3.46  303.
##  5 BP02    abun… u     nasal        1      0.5 clean un     3.48  415.
##  6 BP02    abun… u     nasal        1      0.6 clean un     3.51  336.
##  7 BP02    abun… u     nasal        1      0.7 clean un     3.53  336.
##  8 BP02    abun… u     nasal        1      0.8 clean un     3.56  330.
##  9 BP02    abun… u     nasal        1      0.9 clean un     3.58  302.
## 10 BP02    abun… u     nasal        1      1   clean un     3.60  280.
## # ... with 64,270 more rows, and 4 more variables: F2 <dbl>, F3 <dbl>,
## #   F2_3 <dbl>, F1_2 <dbl>

normtimedata %>% mutate(SpeakerNo = substr(Speaker, 3,4))

## # A tibble: 64,280 x 14
##    Speaker Word  Vowel Nasality RepNo NormTime Type  label  Time    F1
##    <chr>   <chr> <chr> <chr>    <int>    <dbl> <chr> <chr> <dbl> <dbl>
##  1 BP02    abun… u     nasal        1      0.1 clean un     3.39  569.
##  2 BP02    abun… u     nasal        1      0.2 clean un     3.41  364.
##  3 BP02    abun… u     nasal        1      0.3 clean un     3.43  373.
##  4 BP02    abun… u     nasal        1      0.4 clean un     3.46  303.
##  5 BP02    abun… u     nasal        1      0.5 clean un     3.48  415.
##  6 BP02    abun… u     nasal        1      0.6 clean un     3.51  336.
##  7 BP02    abun… u     nasal        1      0.7 clean un     3.53  336.
##  8 BP02    abun… u     nasal        1      0.8 clean un     3.56  330.
##  9 BP02    abun… u     nasal        1      0.9 clean un     3.58  302.
## 10 BP02    abun… u     nasal        1      1   clean un     3.60  280.
## # ... with 64,270 more rows, and 4 more variables: F2 <dbl>, F3 <dbl>,
## #   F2_3 <dbl>, SpeakerNo <chr>

#substr is a base R function. What does it do? 
#?substr

group_by

I know I said there were five main functions. I kind of lied. Summarise (the next function) is not very useful unless we use it in conjunction with group_by. This is because we want to see summaries within different groups, not just across the whole dataset.

normtimedata %>% group_by(Speaker, Vowel, Nasality)

## # A tibble: 64,280 x 13
## # Groups:   Speaker, Vowel, Nasality [144]
##    Speaker Word  Vowel Nasality RepNo NormTime Type  label  Time    F1
##    <chr>   <chr> <chr> <chr>    <int>    <dbl> <chr> <chr> <dbl> <dbl>
##  1 BP02    abun… u     nasal        1      0.1 clean un     3.39  569.
##  2 BP02    abun… u     nasal        1      0.2 clean un     3.41  364.
##  3 BP02    abun… u     nasal        1      0.3 clean un     3.43  373.
##  4 BP02    abun… u     nasal        1      0.4 clean un     3.46  303.
##  5 BP02    abun… u     nasal        1      0.5 clean un     3.48  415.
##  6 BP02    abun… u     nasal        1      0.6 clean un     3.51  336.
##  7 BP02    abun… u     nasal        1      0.7 clean un     3.53  336.
##  8 BP02    abun… u     nasal        1      0.8 clean un     3.56  330.
##  9 BP02    abun… u     nasal        1      0.9 clean un     3.58  302.
## 10 BP02    abun… u     nasal        1      1   clean un     3.60  280.
## # ... with 64,270 more rows, and 3 more variables: F2 <dbl>, F3 <dbl>,
## #   F2_3 <dbl>
…
Summarise

Summarise allows you to collapse a data frame into a single row that tells you some sort of summary about that data. As you can see below, it isn’t useful unless you use it with group_by.

normtimedata %>% summarise(F1mean = mean(F1))

## # A tibble: 1 x 1
##   F1mean
##    <dbl>
## 1   384.

normtimedata %>% group_by(Speaker, Vowel, Nasality) %>% summarise(F1mean = mean(F1))

## # A tibble: 144 x 4
## # Groups:   Speaker, Vowel [?]
##    Speaker Vowel Nasality    F1mean
##    <chr>   <chr> <chr>        <dbl>
##  1 BP02    a     nasal         360.
##  2 BP02    a     nasal_final   493.
##  3 BP02    a     nasalized     490.
##  4 BP02    a     oral          689.
##  5 BP02    i     nasal         282.
##  6 BP02    i     nasal_final   324.
##  7 BP02    i     nasalized     308.
##  8 BP02    i     oral          272.
##  9 BP02    u     nasal         331.
## 10 BP02    u     nasal_final   369.
## # ... with 134 more rows

normtimedata %>% group_by(Speaker, Vowel, Nasality) %>% summarise(F1mean = mean(F1), F1sd = sd(F1), F2mean = mean(F2),F2sd = sd(F2), F3mean = mean(F3),F3sd = sd(F3))

## # A tibble: 144 x 9
## # Groups:   Speaker, Vowel [?]
##    Speaker Vowel Nasality    F1mean  F1sd F2mean  F2sd F3mean  F3sd
##    <chr>   <chr> <chr>        <dbl> <dbl>  <dbl> <dbl>  <dbl> <dbl>
##  1 BP02    a     nasal         360.  94.9  1605. 355.   2476. 221. 
##  2 BP02    a     nasal_final   493.  92.6  1297. 177.   2501. 277. 
##  3 BP02    a     nasalized     490.  51.7  1332. 115.   2511. 135. 
##  4 BP02    a     oral          689. 115.   1268.  59.2  2323.  95.1
##  5 BP02    i     nasal         282.  27.1  2076. 335.   2728. 304. 
##  6 BP02    i     nasal_final   324.  53.8  2046. 369.   2744. 274. 
##  7 BP02    i     nasalized     308.  36.9  2306. 162.   2913. 169. 
##  8 BP02    i     oral          272.  24.0  2191. 125.   2966. 173. 
##  9 BP02    u     nasal         331.  66.9  1708. 482.   2584. 289. 
## 10 BP02    u     nasal_final   369.  62.6  2194. 242.   2870. 210. 
## # ... with 134 more rows
…
