Regular Expressions in R
…
Mutate

summarise and group_by

A brief introduction to strings

Regular expressions

Practice

The dataset I will use for this workshop is the set of lyrics to songs from the Broadway musical Les Mise'rables. The data looks like this:

head(lesmis, 30)

## # A tibble: 30 x 7
##    track_title      track_n  line lyric     element   element_artist  title
##    <chr>              <int> <int> <chr>     <chr>     <chr>           <chr>
##  1 Prologue (Ft. G…       1     1 <NA>      "\"Work … Claude-Michel … "Pro…
##  2 Prologue (Ft. G…       1     2 Aaah, aa… PRISONERS Claude-Michel … "Pro…
##  3 Prologue (Ft. G…       1     3 Aaah, aa… PRISONERS Claude-Michel … "Pro…
##  4 Prologue (Ft. G…       1     4 Aaah, aa… PRISONERS Claude-Michel … "Pro…
##  5 Prologue (Ft. G…       1     5 Aaah, aa… PRISONERS Claude-Michel … "Pro…
##  6 Prologue (Ft. G…       1     6 Look dow… PRISONERS Claude-Michel … "Pro…
##  7 Prologue (Ft. G…       1     7 Don't lo… PRISONERS Claude-Michel … "Pro…
##  8 Prologue (Ft. G…       1     8 Look dow… PRISONERS Claude-Michel … "Pro…
##  9 Prologue (Ft. G…       1     9 You're h… PRISONERS Claude-Michel … "Pro…
## 10 Prologue (Ft. G…       1    10 The sun … PRISONER… Claude-Michel … "Pro…
## # … with 20 more rows
…
Filter

The filter() function is used to choose rows/cases where conditions are true. We can use the following to do filtering:

==

> and <

>= and <=

&, |, !

filter(lesmis, track_n ==1)

## # A tibble: 158 x 7
##    track_title      track_n  line lyric     element   element_artist  title
##    <chr>              <int> <int> <chr>     <chr>     <chr>           <chr>
##  1 Prologue (Ft. G…       1     1 <NA>      "\"Work … Claude-Michel … "Pro…
##  2 Prologue (Ft. G…       1     2 Aaah, aa… PRISONERS Claude-Michel … "Pro…
##  3 Prologue (Ft. G…       1     3 Aaah, aa… PRISONERS Claude-Michel … "Pro…
##  4 Prologue (Ft. G…       1     4 Aaah, aa… PRISONERS Claude-Michel … "Pro…
##  5 Prologue (Ft. G…       1     5 Aaah, aa… PRISONERS Claude-Michel … "Pro…
##  6 Prologue (Ft. G…       1     6 Look dow… PRISONERS Claude-Michel … "Pro…
##  7 Prologue (Ft. G…       1     7 Don't lo… PRISONERS Claude-Michel … "Pro…
##  8 Prologue (Ft. G…       1     8 Look dow… PRISONERS Claude-Michel … "Pro…
##  9 Prologue (Ft. G…       1     9 You're h… PRISONERS Claude-Michel … "Pro…
## 10 Prologue (Ft. G…       1    10 The sun … PRISONER… Claude-Michel … "Pro…
## # … with 148 more rows

head(filter(lesmis, track_n <=5 & element =="VALJEAN"), 30)

## # A tibble: 30 x 7
##    track_title      track_n  line lyric       element element_artist  title
##    <chr>              <int> <int> <chr>       <chr>   <chr>           <chr>
##  1 Prologue (Ft. G…       1    36 Yes, it me… VALJEAN Claude-Michel … "Pro…
##  2 Prologue (Ft. G…       1    39 I stole a … VALJEAN Claude-Michel … "Pro…
##  3 Prologue (Ft. G…       1    41 I broke a … VALJEAN Claude-Michel … "Pro…
##  4 Prologue (Ft. G…       1    42 My sister'… VALJEAN Claude-Michel … "Pro…
##  5 Prologue (Ft. G…       1    43 And we wer… VALJEAN Claude-Michel … "Pro…
##  6 Prologue (Ft. G…       1    46 I know the… VALJEAN Claude-Michel … "Pro…
##  7 Prologue (Ft. G…       1    47 A slave of… VALJEAN Claude-Michel … "Pro…
##  8 Prologue (Ft. G…       1    51 My name is… VALJEAN Claude-Michel … "Pro…
##  9 Prologue (Ft. G…       1    61 Freedom is… VALJEAN Claude-Michel … "Pro…
## 10 Prologue (Ft. G…       1    62 The earth … VALJEAN Claude-Michel … "Pro…
## # … with 20 more rows

Arrange

Arrange changes the order of rows based on a column or a set of columns. The default is ascending order. To use descending order, use desc().

#arrange(lesmis, desc(element))
head(arrange(lesmis, desc(element)), 30)

## # A tibble: 30 x 7
##    track_title     track_n  line lyric     element     element_artist title
##    <chr>             <int> <int> <chr>     <chr>       <chr>          <chr>
##  1 Look Down (Ft.…      14    22 Listen y… YOUNG PROS… Claude-Michel… "Loo…
##  2 Look Down (Ft.…      14    23 Crazy bl… YOUNG PROS… Claude-Michel… "Loo…
##  3 Look Down (Ft.…      14    24 'Least I… YOUNG PROS… Claude-Michel… "Loo…
##  4 Look Down (Ft.…      14    25 Some ple… YOUNG PROS… Claude-Michel… "Loo…
##  5 Castle on a Cl…      11    32 Eponine,… Young Épon… Claude-Michel… "Cas…
##  6 Castle on a Cl…      11    33 You look… Young Épon… Claude-Michel… "Cas…
##  7 Castle on a Cl…      11    34 There's … Young Épon… Claude-Michel… "Cas…
##  8 Castle on a Cl…      11    35 And they… Young Épon… Claude-Michel… "Cas…
##  9 Castle on a Cl…      11    36 And I'm … Young Épon… Claude-Michel… "Cas…
## 10 Castle on a Cl…      11    37 Still th… Young Épon… Claude-Michel… "Cas…
## # … with 20 more rows

#arrange(lesmis, line)
head(arrange(lesmis, line), 30)

## # A tibble: 30 x 7
##    track_title     track_n  line lyric      element   element_artist title 
##    <chr>             <int> <int> <chr>      <chr>     <chr>          <chr> 
##  1 Prologue (Ft. …       1     1 <NA>       "\"Work … Claude-Michel… "Prol…
##  2 What Have I Do…       2     1 What have… VALJEAN   Claude-Michel… "What…
##  3 At the End of …       3     1 At the en… WORKERS   Claude-Michel… "At t…
##  4 I Dreamed a Dr…       4     1 There was… FANTINE   Claude-Michel… "I Dr…
##  5 Lovely Ladies …       5     1 I smell w… SAILOR #1 Claude-Michel… "Love…
##  6 Fantine's Arre…       6     1 Here's so… BAMATABO… Claude-Michel… "Fant…
##  7 The Runaway Ca…       7     1 Look at t… VARIOUS … Claude-Michel… "The …
##  8 Who Am I? (Ft.…       8     1 He thinks… VALJEAN   Claude-Michel… "Who …
##  9 Fantine's Deat…       9     1 Cosette, … FANTINE … Claude-Michel… "Fant…
## 10 Confrontation …      10     1 "Valjean,… JAVERT    Claude-Michel… "Conf…
## # … with 20 more rows

Select

Select allows you to choose one or more variable from your dataset. This is important because you may have columns that you simply don’t care about, and you don’t want to accidentially use them in your analysis. For example, twitter outputs often have over 80 columns of data, most of which is unneeded.

You can select using column names or indexes. Selecting by listing a column name with a minus sign before it is exclusion of a column.

#select(lesmis, 1:3)
head(select(lesmis, 1:3), 30)

## # A tibble: 30 x 3
##    track_title                               track_n  line
##    <chr>                                       <int> <int>
##  1 Prologue (Ft. Gary Morris & Philip Quast)       1     1
##  2 Prologue (Ft. Gary Morris & Philip Quast)       1     2
##  3 Prologue (Ft. Gary Morris & Philip Quast)       1     3
##  4 Prologue (Ft. Gary Morris & Philip Quast)       1     4
##  5 Prologue (Ft. Gary Morris & Philip Quast)       1     5
##  6 Prologue (Ft. Gary Morris & Philip Quast)       1     6
##  7 Prologue (Ft. Gary Morris & Philip Quast)       1     7
##  8 Prologue (Ft. Gary Morris & Philip Quast)       1     8
##  9 Prologue (Ft. Gary Morris & Philip Quast)       1     9
## 10 Prologue (Ft. Gary Morris & Philip Quast)       1    10
## # … with 20 more rows

#select(lesmis, track_title, element, lyric)
head(select(lesmis, track_title, element, lyric), 30)

## # A tibble: 30 x 3
##    track_title                          element       lyric                
##    <chr>                                <chr>         <chr>                
##  1 Prologue (Ft. Gary Morris & Philip … "\"Work Song… <NA>                 
##  2 Prologue (Ft. Gary Morris & Philip … PRISONERS     Aaah, aah, aaaahhhh  
##  3 Prologue (Ft. Gary Morris & Philip … PRISONERS     Aaah, aah, aaaahhhh  
##  4 Prologue (Ft. Gary Morris & Philip … PRISONERS     Aaah, aah, aaaahhhh  
##  5 Prologue (Ft. Gary Morris & Philip … PRISONERS     Aaah, aah, aaaahhhh  
##  6 Prologue (Ft. Gary Morris & Philip … PRISONERS     Look down, look down 
##  7 Prologue (Ft. Gary Morris & Philip … PRISONERS     Don't look 'em in th…
##  8 Prologue (Ft. Gary Morris & Philip … PRISONERS     Look down, look down 
##  9 Prologue (Ft. Gary Morris & Philip … PRISONERS     You're here until yo…
## 10 Prologue (Ft. Gary Morris & Philip … PRISONER #1   The sun is strong    
## # … with 20 more rows

#select(lesmis, -element_artist)
head(select(lesmis, -element_artist), 30)

## # A tibble: 30 x 6
##    track_title              track_n  line lyric          element    title  
##    <chr>                      <int> <int> <chr>          <chr>      <chr>  
##  1 Prologue (Ft. Gary Morr…       1     1 <NA>           "\"Work S… "Prolo…
##  2 Prologue (Ft. Gary Morr…       1     2 Aaah, aah, aa… PRISONERS  "Prolo…
##  3 Prologue (Ft. Gary Morr…       1     3 Aaah, aah, aa… PRISONERS  "Prolo…
##  4 Prologue (Ft. Gary Morr…       1     4 Aaah, aah, aa… PRISONERS  "Prolo…
##  5 Prologue (Ft. Gary Morr…       1     5 Aaah, aah, aa… PRISONERS  "Prolo…
##  6 Prologue (Ft. Gary Morr…       1     6 Look down, lo… PRISONERS  "Prolo…
##  7 Prologue (Ft. Gary Morr…       1     7 Don't look 'e… PRISONERS  "Prolo…
##  8 Prologue (Ft. Gary Morr…       1     8 Look down, lo… PRISONERS  "Prolo…
##  9 Prologue (Ft. Gary Morr…       1     9 You're here u… PRISONERS  "Prolo…
## 10 Prologue (Ft. Gary Morr…       1    10 The sun is st… PRISONER … "Prolo…
## # … with 20 more rows

Mutate

Sometimes, you want to create a new variable that is a function of an old variable. This function will add a new variable to the end of your dataset.

#mutate(lesmis, trackntotal = track_n/max(track_n))
head(mutate(lesmis, trackntotal = track_n/max(track_n)), 30)

## # A tibble: 30 x 8
##    track_title track_n  line lyric element element_artist title trackntotal
##    <chr>         <int> <int> <chr> <chr>   <chr>          <chr>       <dbl>
##  1 Prologue (…       1     1 <NA>  "\"Wor… Claude-Michel… "Pro…      0.0227
##  2 Prologue (…       1     2 Aaah… PRISON… Claude-Michel… "Pro…      0.0227
##  3 Prologue (…       1     3 Aaah… PRISON… Claude-Michel… "Pro…      0.0227
##  4 Prologue (…       1     4 Aaah… PRISON… Claude-Michel… "Pro…      0.0227
##  5 Prologue (…       1     5 Aaah… PRISON… Claude-Michel… "Pro…      0.0227
##  6 Prologue (…       1     6 Look… PRISON… Claude-Michel… "Pro…      0.0227
##  7 Prologue (…       1     7 Don'… PRISON… Claude-Michel… "Pro…      0.0227
##  8 Prologue (…       1     8 Look… PRISON… Claude-Michel… "Pro…      0.0227
##  9 Prologue (…       1     9 You'… PRISON… Claude-Michel… "Pro…      0.0227
## 10 Prologue (…       1    10 The … PRISON… Claude-Michel… "Pro…      0.0227
## # … with 20 more rows

lesmis = mutate(lesmis, title = str_extract(track_title, "[[:alpha:]?'\\s]+"))

head(lesmis, 30)

## # A tibble: 30 x 7
##    track_title      track_n  line lyric     element   element_artist  title
##    <chr>              <int> <int> <chr>     <chr>     <chr>           <chr>
##  1 Prologue (Ft. G…       1     1 <NA>      "\"Work … Claude-Michel … "Pro…
##  2 Prologue (Ft. G…       1     2 Aaah, aa… PRISONERS Claude-Michel … "Pro…
##  3 Prologue (Ft. G…       1     3 Aaah, aa… PRISONERS Claude-Michel … "Pro…
##  4 Prologue (Ft. G…       1     4 Aaah, aa… PRISONERS Claude-Michel … "Pro…
##  5 Prologue (Ft. G…       1     5 Aaah, aa… PRISONERS Claude-Michel … "Pro…
##  6 Prologue (Ft. G…       1     6 Look dow… PRISONERS Claude-Michel … "Pro…
##  7 Prologue (Ft. G…       1     7 Don't lo… PRISONERS Claude-Michel … "Pro…
##  8 Prologue (Ft. G…       1     8 Look dow… PRISONERS Claude-Michel … "Pro…
##  9 Prologue (Ft. G…       1     9 You're h… PRISONERS Claude-Michel … "Pro…
## 10 Prologue (Ft. G…       1    10 The sun … PRISONER… Claude-Michel … "Pro…
## # … with 20 more rows
…
## # A tibble: 6 x 7
## # Groups:   title [1]
##   track_title       track_n  line lyric    element   element_artist  title 
##   <chr>               <int> <int> <chr>    <chr>     <chr>           <chr> 
## 1 Prologue (Ft. Ga…       1     1 <NA>     "\"Work … Claude-Michel … "Prol…
## 2 Prologue (Ft. Ga…       1     2 Aaah, a… PRISONERS Claude-Michel … "Prol…
## 3 Prologue (Ft. Ga…       1     3 Aaah, a… PRISONERS Claude-Michel … "Prol…
## 4 Prologue (Ft. Ga…       1     4 Aaah, a… PRISONERS Claude-Michel … "Prol…
## 5 Prologue (Ft. Ga…       1     5 Aaah, a… PRISONERS Claude-Michel … "Prol…
## 6 Prologue (Ft. Ga…       1     6 Look do… PRISONERS Claude-Michel … "Prol…

summarise(lesmis, nlines = n(), ncharacters = n_distinct(element))

## # A tibble: 44 x 3
##    title                           nlines ncharacters
##    <chr>                            <int>       <int>
##  1 "A Heart Full of Love "             39           5
##  2 "A Little Fall of Rain "            56          10
##  3 "At The Barricade "                 55          15
##  4 "At the End of the Day "            87          12
##  5 "Bring Him Home "                   21           1
##  6 Building the Barricade              20          10
##  7 "Castle on a Cloud "                43           6
##  8 "Confrontation "                    54           5
##  9 Dawn of Anguish                     14           4
## 10 "Do You Hear The People Sing? "     35           5
## # … with 34 more rows
…
Javert = filter(lesmis, (str_detect(lyric, "Javert")))
Javert

## # A tibble: 21 x 7
##    track_title      track_n  line lyric    element     element_artist title
##    <chr>              <int> <int> <chr>    <chr>       <chr>          <chr>
##  1 Prologue (Ft. G…       1    52 And I'm… JAVERT      Claude-Michel… "Pro…
##  2 Fantine's Arres…       6    28 Let him… JAVERT      Claude-Michel… "Fan…
##  3 Fantine's Arres…       6    33 Javert,… BAMATABOIS  Claude-Michel… "Fan…
##  4 Fantine's Arres…       6    51 A momen… VALJEAN     Claude-Michel… "Fan…
##  5 Who Am I? (Ft. …       8    36 And so … He unbutto… Claude-Michel… "Who…
##  6 Confrontation (…      10     2 Before … VALJEAN     Claude-Michel… "Con…
##  7 Confrontation (…      10    31 I am wa… JAVERT      Claude-Michel… "Con…
##  8 Confrontation (…      10    39 I am wa… JAVERT      Claude-Michel… "Con…
##  9 Confrontation (…      10    43 You kno… JAVERT      Claude-Michel… "Con…
## 10 The Robbery / J…      15    51 Run for… EPONINE     Claude-Michel… "The…
## # … with 11 more rows
…
