Eye Tracking Analysis
…
## Interest Area IDs for the left eye are coded appropriately.

##  ID   Label
##   0 Outside

Next, the create_time_series() function creates a new column for time, which allows for doing time series analyses, If an adjustment is needed, specify it in the Adjust parameter. This subtracts the given value from all time points.

If you would like to do this based on a message give in the system, you can use the check_msg_time() and align_dat() functions.

#Hard coding the alignment adjustment, if you know what it is
check_msg_time(data = dat1, Msg = "TargetOnset")

## # A tibble: 320 x 3
##    Event    SAMPLE_MESSAGE TIMESTAMP
##    <fct>    <fct>              <dbl>
##  1 14001.1  TargetOnset      1047404
##  2 14001.2  TargetOnset      1054655
##  3 14001.3  TargetOnset      1062588
##  4 14001.4  TargetOnset      1069839
##  5 14001.5  TargetOnset      1077056
##  6 14001.6  TargetOnset      1084256
##  7 14001.7  TargetOnset      1091490
##  8 14001.8  TargetOnset      1099623
##  9 14001.9  TargetOnset      1107174
## 10 14001.10 TargetOnset      1114525
## # … with 310 more rows

dat2 <- create_time_series(data = dat1, Adjust = 100)

## 100 ms adjustment applied.

check_msg_time(data = dat2, Msg = "TargetOnset")

## # A tibble: 320 x 3
##    Event   SAMPLE_MESSAGE  Time
##    <fct>   <fct>          <dbl>
##  1 14001.1 TargetOnset        0
##  2 14002.1 TargetOnset        0
##  3 14003.1 TargetOnset        0
##  4 14004.1 TargetOnset        0
##  5 14005.1 TargetOnset        0
##  6 14006.1 TargetOnset        0
##  7 14008.1 TargetOnset        0
##  8 14010.1 TargetOnset        0
##  9 14001.2 TargetOnset        0
## 10 14002.2 TargetOnset        0
## # … with 310 more rows

#Or, to align based on a messge
dat1a = align_msg(data = dat1, Msg = "TargetOnset")
check_msg_time(data = dat1a, Msg = "TargetOnset")

## # A tibble: 320 x 3
##    Event    SAMPLE_MESSAGE Align
##    <fct>    <fct>          <dbl>
##  1 14001.1  TargetOnset        0
##  2 14001.2  TargetOnset        0
##  3 14001.3  TargetOnset        0
##  4 14001.4  TargetOnset        0
##  5 14001.5  TargetOnset        0
##  6 14001.6  TargetOnset        0
##  7 14001.7  TargetOnset        0
##  8 14001.8  TargetOnset        0
##  9 14001.9  TargetOnset        0
## 10 14001.10 TargetOnset        0
## # … with 310 more rows

dat2a = create_time_series(dat1a, Adjust = 0)

## No adjustment applied.

check_msg_time(data = dat2a, Msg = "TargetOnset")

## # A tibble: 320 x 3
##    Event   SAMPLE_MESSAGE  Time
##    <fct>   <fct>          <dbl>
##  1 14001.1 TargetOnset        0
##  2 14002.1 TargetOnset        0
##  3 14003.1 TargetOnset        0
##  4 14004.1 TargetOnset        0
##  5 14005.1 TargetOnset        0
##  6 14006.1 TargetOnset        0
##  7 14008.1 TargetOnset        0
##  8 14010.1 TargetOnset        0
##  9 14001.2 TargetOnset        0
## 10 14002.2 TargetOnset        0
## # … with 310 more rows
…
## Analyzing Distractor...

## Warning in make_time_sequence_data(data = data, time_bin_size =
## time_bin_size, : With the current time-bin size, the final time-bin has a
## much smaller number of distinct samples than the other time-bins. Consider
## choosing a different time-bin size or using 'subset_by_window' to remove
## this portion of the trial.

head(etRdata3, 30)

## # A tibble: 30 x 21
##    RECORDING_SESSI… TRIAL_INDEX talker Exp   TimeBin SamplesInAOI
##    <fct>            <fct>       <fct>  <fct>   <dbl>        <int>
##  1 14001            1           EN3    High       -5            0
##  2 14001            1           EN3    High       -4            0
##  3 14001            1           EN3    High       -3            0
##  4 14001            1           EN3    High       -2            0
##  5 14001            1           EN3    High       -1            0
##  6 14001            1           EN3    High        0            0
##  7 14001            1           EN3    High        1            0
##  8 14001            1           EN3    High        2            0
##  9 14001            1           EN3    High        3            0
## 10 14001            1           EN3    High        4            0
## # … with 20 more rows, and 15 more variables: SamplesTotal <int>,
## #   AOI <chr>, Elog <dbl>, Weights <dbl>, Prop <dbl>, LogitAdjusted <dbl>,
## #   ArcSin <dbl>, Time <dbl>, ot1 <dbl>, ot2 <dbl>, ot3 <dbl>, ot4 <dbl>,
## #   ot5 <dbl>, ot6 <dbl>, ot7 <dbl>
…
